com/selenium/steps/editarMascotaSteps.class
com/selenium/page/PetmatchLoginPage.class
com/selenium/framework/ParentPage.class
com/selenium/framework/DSL.class
com/selenium/framework/ParentScenario.class
